features.knit
…
    total <- nrow(var_imps)
    for (i in seq_len(total)) {
      imps %<>% add_case(model = path, feature = var_imps$var[i], rank = i, total = total, imp = var_imps$imp[i])
    }
  }
  imps
}

imps_nb <- get_imps(METHOD_NAIVE_BAYES)
imps_glm <- get_imps(METHOD_GLMNET)
imps_rf <- get_imps(METHOD_RF)

imps_nb

## # A tibble: 561 x 5
##    model                                       feature        rank total     imp
##    <chr>                                       <chr>         <dbl> <dbl>   <dbl>
##  1 reports/results/models_and_evals/naive_bay cisag6            1    20 0.72949
##  2 reports/results/models_and_evals/naive_bay mentalvar_A_     2    20 0.71215
##  3 reports/results/models_and_evals/naive_bay cisah5            3    20 0.71053
##  4 reports/results/models_and_evals/naive_bay cisag5            4    20 0.68546
##  5 reports/results/models_and_evals/naive_bay cisag7            5    20 0.68293
##  6 reports/results/models_and_evals/naive_bay cisag2            6    20 0.67572
##  7 reports/results/models_and_evals/naive_bay cisag4            7    20 0.67526
##  8 reports/results/models_and_evals/naive_bay cisah4            8    20 0.66821
##  9 reports/results/models_and_evals/naive_bay cisah3a           9    20 0.66168
## 10 reports/results/models_and_evals/naive_bay cisah3c          10    20 0.65709
## #  with 551 more rows

imps_glm

## # A tibble: 1,008 x 5
##    model                                    feature           rank total     imp
##    <chr>                                    <chr>            <dbl> <dbl>   <dbl>
##  1 reports/results/models_and_evals/glmnet cisag4               1    51 0.68917
##  2 reports/results/models_and_evals/glmnet cisah5               2    51 0.53141
##  3 reports/results/models_and_evals/glmnet mentalvar_A_SIN     3    51 0.35895
##  4 reports/results/models_and_evals/glmnet cisag5               4    51 0.33590
##  5 reports/results/models_and_evals/glmnet cisag6               5    51 0.31250
##  6 reports/results/models_and_evals/glmnet anamnesis_deriv     6    51 0.24342
##  7 reports/results/models_and_evals/glmnet cisag7               7    51 0.23544
##  8 reports/results/models_and_evals/glmnet EKG_a_vfccl_tri     8    51 0.22056
##  9 reports/results/models_and_evals/glmnet mentalvar__TAG       9    51 0.21914
## 10 reports/results/models_and_evals/glmnet cisag1              10    51 0.20191
## #  with 998 more rows

imps_rf

## # A tibble: 6,221 x 5
##    model                                        feature        rank total    imp
##    <chr>                                        <chr>         <dbl> <dbl>  <dbl>
##  1 reports/results/models_and_evals/ranger:::M cisah5            1   148 53.808
##  2 reports/results/models_and_evals/ranger:::M mentalvar_A_     2   148 53.425
##  3 reports/results/models_and_evals/ranger:::M cisag6            3   148 52.254
##  4 reports/results/models_and_evals/ranger:::M cisag4            4   148 49.127
##  5 reports/results/models_and_evals/ranger:::M cisag7            5   148 46.008
##  6 reports/results/models_and_evals/ranger:::M cisah4            6   148 44.218
##  7 reports/results/models_and_evals/ranger:::M cisag5            7   148 41.345
##  8 reports/results/models_and_evals/ranger:::M cisah3c           8   148 37.310
##  9 reports/results/models_and_evals/ranger:::M cisag2            9   148 36.600
## 10 reports/results/models_and_evals/ranger:::M cisah3b          10   148 34.491
## #  with 6,211 more rows
get_imps_avg <- function(imps) imps %>%
  group_by(feature) %>%
  summarise(count = n(), imp = mean(imp)) %>%
  arrange(desc(imp)) %>%
  mutate(imp = rescale(imp), frequency = count / 30) %>%
  left_join(descrs, by = "feature") %>%
  mutate(label = coalesce(label, feature))

imps_avg_nb <- get_imps_avg(imps_nb)
imps_avg_glm <- get_imps_avg(imps_glm)
imps_avg_rf <- get_imps_avg(imps_rf)

imps_avg_nb

## # A tibble: 23 x 5
##    feature          count     imp frequency label                               
##    <chr>            <int>   <dbl>     <dbl> <chr>                               
##  1 cisag6              30 1               1 #days sad/incapable of enjoyment la
##  2 cisah5              30 0.87923         1 Felt not so good as other people in
##  3 mentalvar_A_SIN    30 0.86375         1 Depression symptoms                 
##  4 cisag5              30 0.70700         1 Enjoyed things as used to in last 7d
##  5 cisag2              30 0.63814         1 Enjoyed things as used to in last 3
##  6 cisag7              30 0.63269         1 Sad/incapable of enjoyment 3h+ in l
##  7 cisag4              30 0.58777         1 Sad/depressed in last 7d            
##  8 cisah4              30 0.57218         1 Guilty or blamed themself unnecessa
##  9 cisah3a             30 0.51989         1 When sad got restless in last 7d    
## 10 cisah3c             30 0.49970         1 When sad got less talkative in last
## #  with 13 more rows

imps_avg_glm

## # A tibble: 179 x 5
##    feature                count     imp frequency label                         
##    <chr>                  <int>   <dbl>     <dbl> <chr>                         
##  1 cisag4                    30 1        1        Sad/depressed in last 7d      
##  2 cisah5                    30 0.87624  1        Felt not so good as other peo
##  3 EKG_a_ecgmc_im            10 0.75173  0.33333  Myocardial infarction         
##  4 EKG_a_vfccl_triangind    29 0.59098  0.96667  Triangular Index VFCDT        
##  5 job_related_hoca22         1 0.58915  0.033333 job_related_hoca22            
##  6 EKG_a_ecgmc_desveixoe     2 0.57875  0.066667 EKG_a_ecgmc_desveixoesq       
##  7 cisag5                    30 0.54720  1        Enjoyed things as used to in 
##  8 cisag6                    30 0.51557  1        #days sad/incapable of enjoym
##  9 derived_A_FRAMINGHAM_    19 0.48143  0.63333  Low LDL (Framingham criteria) 
## 10 cisal4                     2 0.45652  0.066667 cisal4                        
## #  with 169 more rows

imps_avg_rf

## # A tibble: 627 x 5
##    feature          count     imp frequency label                               
##    <chr>            <int>   <dbl>     <dbl> <chr>                               
##  1 cisah5              30 1               1 Felt not so good as other people in
##  2 mentalvar_A_SIN    30 0.90978         1 Depression symptoms                 
##  3 cisag6              30 0.90723         1 #days sad/incapable of enjoyment la
##  4 cisag4              30 0.85132         1 Sad/depressed in last 7d            
##  5 cisag7              30 0.76088         1 Sad/incapable of enjoyment 3h+ in l
##  6 cisah4              30 0.72383         1 Guilty or blamed themself unnecessa
##  7 cisag5              30 0.71754         1 Enjoyed things as used to in last 7d
##  8 cisah3c             30 0.64493         1 When sad got less talkative in last
##  9 cisag2              30 0.64115         1 Enjoyed things as used to in last 3
## 10 cisah3a             30 0.60086         1 When sad got restless in last 7d    
## #  with 617 more rows
…
imps_avg <- imps_avg_nb %>%
  left_join(imps_avg_glm, by = "feature") %>%
  left_join(imps_avg_rf, by = "feature") %>%
  replace_na(list(frequency = 0, frequency.x = 0, frequency.y = 0,
                  count = 0, count.x = 0, count.y = 0,
                  imp = 0, imp.x = 0, imp.y = 0)) %>%
  mutate(frequency = (frequency + frequency.x + frequency.y) / 3) %>%
  mutate(count = (count + count.x + count.y) / 3) %>%
  mutate(imp = (imp + imp.x + imp.y) / 3) %>%
  select(feature, label, count, imp, frequency) %>%
  head(25)
imps_avg

## # A tibble: 23 x 5
##    feature          label                                count     imp frequency
##    <chr>            <chr>                                <dbl>   <dbl>     <dbl>
##  1 cisag6           #days sad/incapable of enjoyment l 30     0.80760   1      
##  2 cisah5           Felt not so good as other people i 30     0.91849   1      
##  3 mentalvar_A_SIN Depression symptoms                 29.667 0.73690   0.98889
##  4 cisag5           Enjoyed things as used to in last  30     0.65725   1      
##  5 cisag2           Enjoyed things as used to in last  28.667 0.48460   0.95556
##  6 cisag7           Sad/incapable of enjoyment 3h+ in  30     0.55926   1      
##  7 cisag4           Sad/depressed in last 7d            30     0.81303   1      
##  8 cisah4           Guilty or blamed themself unnecess 29.667 0.49827   0.98889
##  9 cisah3a          When sad got restless in last 7d    30     0.46315   1      
## 10 cisah3c          When sad got less talkative in las 24     0.44253   0.8    
## #  with 13 more rows
…
